…
Since we often wish to use the estimated profiles in subsequent analyses, we may want the original data.frame, with variables that are predictors or outcomes of the profiles, included. Here, we created profiles with just two of the three variables, to demonstrate how the third variable is still returned in the output. We can return this data.frame, and not just one with the variables used to create the profiles and the profile assignments (and posterior probabilities), using the function get_data()

get_data(m3)
#> # A tibble: 300 x 9
#>    model_number classes_number broad_interest enjoyment self_efficacy Class
#>           <dbl>          <dbl>          <dbl>     <dbl>         <dbl> <dbl>
#>  1            1              3            3.8       4            1        1
#>  2            1              3            3         3            2.75     3
#>  3            1              3            1.8       2.8          3.38     3
#>  4            1              3            1.4       1            2.75     2
#>  5            1              3            1.8       2.2          2        3
#>  6            1              3            1.6       1.6          1.88     3
#>  7            1              3            3         3.8          2.25     1
#>  8            1              3            2.6       2.2          2        3
#>  9            1              3            1         2.8          2.62     3
#> 10            1              3            2.2       2            1.75     3
#> #  with 290 more rows, and 3 more variables: Class_prob <int>,
#> #   Probability <dbl>, id <int>
…
